fsic_fpga/rtl/user/testbench/tc/xsim_41171.backup.log
#-----------------------------------------------------------
# xsim v2022.1 (64-bit)
# SW Build 3526262 on Mon Apr 18 15:47:01 MDT 2022
# IP Build 3524634 on Mon Apr 18 20:55:01 MDT 2022
# Start of session at: Sun Mar 17 11:16:41 2024
# Process ID: 41171
# Current directory: /home/ubuntu/caravel-soc_fpga-lab/fsic-sim/fsic_fpga/rtl/user/testbench/tc
# Command line: xsim -mode tcl -source {xsim.dir/tb_fsic_xelab/xsim_script.tcl}
# Log file: /home/ubuntu/caravel-soc_fpga-lab/fsic-sim/fsic_fpga/rtl/user/testbench/tc/xsim.log
# Journal file: /home/ubuntu/caravel-soc_fpga-lab/fsic-sim/fsic_fpga/rtl/user/testbench/tc/xsim.jou
# Running On: ubuntu2004, OS: Linux, CPU Frequency: 2495.998 MHz, CPU Physical cores: 2, Host memory: 10425 MB
#-----------------------------------------------------------
source xsim.dir/tb_fsic_xelab/xsim_script.tcl
# xsim {tb_fsic_xelab} -autoloadwcfg -tclbatch {log_wave.tcl}
Time resolution is 1 ps
open_wave_config /home/ubuntu/caravel-soc_fpga-lab/fsic-sim/fsic_fpga/rtl/user/testbench/tc/tb_fsic_xelab.wcfg
WARNING: Simulation object /tb_fsic/dut/U_MPRJ_IO0/vccd1 was not found in the design.
WARNING: Simulation object /tb_fsic/dut/U_MPRJ_IO0/vccd2 was not found in the design.
WARNING: Simulation object /tb_fsic/dut/U_MPRJ_IO0/vssd1 was not found in the design.
WARNING: Simulation object /tb_fsic/dut/U_MPRJ_IO0/vssd2 was not found in the design.
WARNING: Simulation object /tb_fsic/vccd1 was not found in the design.
WARNING: Simulation object /tb_fsic/vccd2 was not found in the design.
WARNING: Simulation object /tb_fsic/vssd1 was not found in the design.
WARNING: Simulation object /tb_fsic/vssd2 was not found in the design.
WARNING: Simulation object /tb_fsic/dut/AXIS_SW0/pre_rd_ptr_reg was not found in the design.
WARNING: Simulation object /tb_fsic/dut/AXIS_SW0/as_up_tvalid_reg was not found in the design.
WARNING: Simulation object /tb_fsic/dut/AXIS_SW0/as_aa_tvalid_reg was not found in the design.
WARNING: Simulation object /tb_fsic/dut/AXIS_SW0/delaynext was not found in the design.
WARNING: Simulation object /tb_fsic/dut/AXIS_SW0/pre_m_axis was not found in the design.
WARNING: Simulation object /tb_fsic/dut/U_USER_SUBSYS0/U_USRPRJ0/reg_edgedetect_done was not found in the design.
WARNING: Simulation object /tb_fsic/dut/U_USER_SUBSYS0/U_USRPRJ0/edgedetect_done was not found in the design.
WARNING: Simulation object /tb_fsic/dut/U_USER_SUBSYS0/U_USRPRJ0/rd_state was not found in the design.
WARNING: Simulation object /tb_fsic/dut/U_USER_SUBSYS0/U_USRPRJ0/rd_next_state was not found in the design.
WARNING: Simulation object /tb_fsic/dut/U_USER_SUBSYS0/U_USRPRJ0/reg_widthIn was not found in the design.
WARNING: Simulation object /tb_fsic/dut/U_USER_SUBSYS0/U_USRPRJ0/reg_heightIn was not found in the design.
WARNING: Simulation object /tb_fsic/dut/U_USER_SUBSYS0/U_USRPRJ0/reg_sw_in was not found in the design.
WARNING: Simulation object /tb_fsic/dut/U_USER_SUBSYS0/U_USRPRJ0/reg_rst was not found in the design.
WARNING: Simulation object /tb_fsic/dut/U_USER_SUBSYS0/U_USRPRJ0/crc32_stream_in was not found in the design.
WARNING: Simulation object /tb_fsic/dut/U_USER_SUBSYS0/U_USRPRJ0/crc32_stream_out was not found in the design.
WARNING: Simulation object /tb_fsic/dut/U_USER_SUBSYS0/U_USRPRJ0/reg_crc32_stream_in was not found in the design.
WARNING: Simulation object /tb_fsic/dut/U_USER_SUBSYS0/U_USRPRJ0/reg_crc32_stream_out was not found in the design.
WARNING: Simulation object /tb_fsic/dut/AXIS_SW0/as_up_tvalid_reg was not found in the design.
WARNING: Simulation object /tb_fsic/dut/AXIS_SW0/pre_rd_ptr_reg was not found in the design.
WARNING: Simulation object /tb_fsic/dut/AXIS_SW0/as_up_tvalid_reg was not found in the design.
WARNING: Simulation object /tb_fsic/dut/AXIS_SW0/as_aa_tvalid_reg was not found in the design.
WARNING: Simulation object /tb_fsic/dut/AXIS_SW0/delaynext was not found in the design.
WARNING: Simulation object /tb_fsic/dut/AXIS_SW0/pre_m_axis was not found in the design.
source log_wave.tcl
## log_wave -quiet -verbose -recursive *
## run all

********** Test#1: FIR initialization from SoC side **********
system_init
                  40=> soc POR Assert
                  40=> fpga POR Assert
                  40=> fpga reset Assert
                  80=> soc POR De-Assert
                  80=> fpga POR De-Assert
                 120=> fpga reset De-Assert
                 185=> fpga_as_to_is_init done
                 225=> fpga_cfg_write : fpga_axi_awaddr=0000, fpga_axi_awvalid=1, fpga_axi_awready=1, fpga_axi_wdata=00000001, axi_wstrb=1, fpga_axi_wvalid=1, fpga_axi_wready=1
                 425=> soc_is_cfg_write : wbs_adr=30003000, wbs_sel=0001, wbs_wdata=00000001
                 865=> fpga_cfg_write : fpga_axi_awaddr=0000, fpga_axi_awvalid=1, fpga_axi_awready=1, fpga_axi_wdata=00000003, axi_wstrb=1, fpga_axi_wvalid=1, fpga_axi_wready=1
                1025=> soc_is_cfg_write : wbs_adr=30003000, wbs_sel=0001, wbs_wdata=00000003
                1265=> soc_UP_mode_write : wbs_adr=30005000, wbs_sel=1111, wbs_wdata=00000001
                1505=> soc_up_cfg_read : wbs_adr=30000000, wbs_sel=1111
                1505=> soc wishbone read data result : send soc_cfg_read_event
                1505=> soc_up_cfg_read : got soc_cfg_read_event
                1785=> soc_up_cfg_write : wbs_adr=30000010, wbs_sel=1111, wbs_wdata=00000040
                2065=> soc_up_cfg_write : wbs_adr=30000020, wbs_sel=1111, wbs_wdata=00000000
                2345=> soc_up_cfg_write : wbs_adr=30000024, wbs_sel=1111, wbs_wdata=fffffff6
                2625=> soc_up_cfg_write : wbs_adr=30000028, wbs_sel=1111, wbs_wdata=fffffff7
                2905=> soc_up_cfg_write : wbs_adr=3000002c, wbs_sel=1111, wbs_wdata=00000017
                3185=> soc_up_cfg_write : wbs_adr=30000030, wbs_sel=1111, wbs_wdata=00000038
                3465=> soc_up_cfg_write : wbs_adr=30000034, wbs_sel=1111, wbs_wdata=0000003f
                3745=> soc_up_cfg_write : wbs_adr=30000038, wbs_sel=1111, wbs_wdata=00000038
                4025=> soc_up_cfg_write : wbs_adr=3000003c, wbs_sel=1111, wbs_wdata=00000017
                4305=> soc_up_cfg_write : wbs_adr=30000040, wbs_sel=1111, wbs_wdata=fffffff7
                4585=> soc_up_cfg_write : wbs_adr=30000044, wbs_sel=1111, wbs_wdata=fffffff6
                4865=> soc_up_cfg_write : wbs_adr=30000048, wbs_sel=1111, wbs_wdata=00000000
                5105=> soc_up_cfg_read : wbs_adr=30000010, wbs_sel=1111
                5105=> soc wishbone read data result : send soc_cfg_read_event
                5105=> soc_up_cfg_read : got soc_cfg_read_event
                5105=> SoC check: [PASS] cfg_read_data_expect_value=00000040, cfg_read_data_captured=00000040
-----------------
                5385=> soc_up_cfg_read : wbs_adr=30000020, wbs_sel=1111
                5385=> soc wishbone read data result : send soc_cfg_read_event
                5385=> soc_up_cfg_read : got soc_cfg_read_event
                5385=> SoC check: [PASS] cfg_read_data_expect_value=00000000, cfg_read_data_captured=00000000
-----------------
                5665=> soc_up_cfg_read : wbs_adr=30000024, wbs_sel=1111
                5665=> soc wishbone read data result : send soc_cfg_read_event
                5665=> soc_up_cfg_read : got soc_cfg_read_event
                5665=> SoC check: [PASS] cfg_read_data_expect_value=fffffff6, cfg_read_data_captured=fffffff6
-----------------
                5945=> soc_up_cfg_read : wbs_adr=30000028, wbs_sel=1111
                5945=> soc wishbone read data result : send soc_cfg_read_event
                5945=> soc_up_cfg_read : got soc_cfg_read_event
                5945=> SoC check: [PASS] cfg_read_data_expect_value=fffffff7, cfg_read_data_captured=fffffff7
-----------------
                6225=> soc_up_cfg_read : wbs_adr=3000002c, wbs_sel=1111
                6225=> soc wishbone read data result : send soc_cfg_read_event
                6225=> soc_up_cfg_read : got soc_cfg_read_event
                6225=> SoC check: [PASS] cfg_read_data_expect_value=00000017, cfg_read_data_captured=00000017
-----------------
                6505=> soc_up_cfg_read : wbs_adr=30000030, wbs_sel=1111
                6505=> soc wishbone read data result : send soc_cfg_read_event
                6505=> soc_up_cfg_read : got soc_cfg_read_event
                6505=> SoC check: [PASS] cfg_read_data_expect_value=00000038, cfg_read_data_captured=00000038
-----------------
                6785=> soc_up_cfg_read : wbs_adr=30000034, wbs_sel=1111
                6785=> soc wishbone read data result : send soc_cfg_read_event
                6785=> soc_up_cfg_read : got soc_cfg_read_event
                6785=> SoC check: [PASS] cfg_read_data_expect_value=0000003f, cfg_read_data_captured=0000003f
-----------------
                7065=> soc_up_cfg_read : wbs_adr=30000038, wbs_sel=1111
                7065=> soc wishbone read data result : send soc_cfg_read_event
                7065=> soc_up_cfg_read : got soc_cfg_read_event
                7065=> SoC check: [PASS] cfg_read_data_expect_value=00000038, cfg_read_data_captured=00000038
-----------------
                7345=> soc_up_cfg_read : wbs_adr=3000003c, wbs_sel=1111
                7345=> soc wishbone read data result : send soc_cfg_read_event
                7345=> soc_up_cfg_read : got soc_cfg_read_event
                7345=> SoC check: [PASS] cfg_read_data_expect_value=00000017, cfg_read_data_captured=00000017
-----------------
                7625=> soc_up_cfg_read : wbs_adr=30000040, wbs_sel=1111
                7625=> soc wishbone read data result : send soc_cfg_read_event
                7625=> soc_up_cfg_read : got soc_cfg_read_event
                7625=> SoC check: [PASS] cfg_read_data_expect_value=fffffff7, cfg_read_data_captured=fffffff7
-----------------
                7905=> soc_up_cfg_read : wbs_adr=30000044, wbs_sel=1111
                7905=> soc wishbone read data result : send soc_cfg_read_event
                7905=> soc_up_cfg_read : got soc_cfg_read_event
                7905=> SoC check: [PASS] cfg_read_data_expect_value=fffffff6, cfg_read_data_captured=fffffff6
-----------------
                8185=> soc_up_cfg_read : wbs_adr=30000048, wbs_sel=1111
                8185=> soc wishbone read data result : send soc_cfg_read_event
                8185=> soc_up_cfg_read : got soc_cfg_read_event
                8185=> SoC check: [PASS] cfg_read_data_expect_value=00000000, cfg_read_data_captured=00000000
-----------------
 Start FIR
                8465=> soc_up_cfg_write : wbs_adr=30000000, wbs_sel=1111, wbs_wdata=00000001
                8785=> soc_aa_cfg_write : wbs_adr=30002000, wbs_sel=1111, wbs_wdata=5a5a5a5a
                9265=> get soc_to_fpga_mailbox_write_addr_captured be : soc_to_fpga_mailbox_write_addr_captured =xxxxxxxx, fpga_is_as_tdata=f0002000
                9265=> get soc_to_fpga_mailbox_write_addr_captured af : soc_to_fpga_mailbox_write_addr_captured =f0002000, fpga_is_as_tdata=f0002000
                9505=> get soc_to_fpga_mailbox_write_data_captured be : soc_to_fpga_mailbox_write_data_captured =xxxxxxxx, fpga_is_as_tdata=5a5a5a5a
                9505=> get soc_to_fpga_mailbox_write_data_captured af : soc_to_fpga_mailbox_write_data_captured =5a5a5a5a, fpga_is_as_tdata=5a5a5a5a
                9505=> soc_to_fpga_mailbox_write_data_captured : send soc_to_fpga_mailbox_write_event
                9505=> got soc_to_fpga_mailbox_write_event
                9505=> [PASS] soc_to_fpga_mailbox_write_addr_expect_value=0002000, soc_to_fpga_mailbox_write_addr_captured[27:0]=0002000
                9505=> [PASS] soc_to_fpga_mailbox_write_addr_BE_expect_value=f, soc_to_fpga_mailbox_write_addr_captured[31:28]=f
                9505=> [PASS] soc_to_fpga_mailbox_write_data_expect_value=5a5a5a5a, soc_to_fpga_mailbox_write_data_captured=5a5a5a5a
-----------------
Call task test1_fpga_axis_req()
                9545=> fpga_axis_req send data, fpga_as_is_tupsb = 00000, fpga_as_is_tstrb = 0000, fpga_as_is_tkeep = 0000, fpga_as_is_tlast = 0, fpga_as_is_tdata = 00000000
                9585=> fpga_axis_req send data, fpga_as_is_tupsb = 00001, fpga_as_is_tstrb = 0000, fpga_as_is_tkeep = 0000, fpga_as_is_tlast = 0, fpga_as_is_tdata = 00000001
                9625=> fpga_axis_req send data, fpga_as_is_tupsb = 00010, fpga_as_is_tstrb = 0000, fpga_as_is_tkeep = 0000, fpga_as_is_tlast = 0, fpga_as_is_tdata = 00000002
                9665=> fpga_axis_req send data, fpga_as_is_tupsb = 00011, fpga_as_is_tstrb = 0000, fpga_as_is_tkeep = 0000, fpga_as_is_tlast = 0, fpga_as_is_tdata = 00000003
                9705=> fpga_axis_req send data, fpga_as_is_tupsb = 00100, fpga_as_is_tstrb = 0000, fpga_as_is_tkeep = 0000, fpga_as_is_tlast = 0, fpga_as_is_tdata = 00000004
                9745=> fpga_axis_req send data, fpga_as_is_tupsb = 00101, fpga_as_is_tstrb = 0000, fpga_as_is_tkeep = 0000, fpga_as_is_tlast = 0, fpga_as_is_tdata = 00000005
                9785=> fpga_axis_req send data, fpga_as_is_tupsb = 00110, fpga_as_is_tstrb = 0000, fpga_as_is_tkeep = 0000, fpga_as_is_tlast = 0, fpga_as_is_tdata = 00000006
                9825=> fpga_axis_req send data, fpga_as_is_tupsb = 00111, fpga_as_is_tstrb = 0000, fpga_as_is_tkeep = 0000, fpga_as_is_tlast = 0, fpga_as_is_tdata = 00000007
                9865=> fpga_axis_req send data, fpga_as_is_tupsb = 01000, fpga_as_is_tstrb = 0000, fpga_as_is_tkeep = 0000, fpga_as_is_tlast = 0, fpga_as_is_tdata = 00000008
                9905=> fpga_axis_req send data, fpga_as_is_tupsb = 01001, fpga_as_is_tstrb = 0000, fpga_as_is_tkeep = 0000, fpga_as_is_tlast = 0, fpga_as_is_tdata = 00000009
                9945=> fpga_axis_req send data, fpga_as_is_tupsb = 01010, fpga_as_is_tstrb = 0000, fpga_as_is_tkeep = 0000, fpga_as_is_tlast = 0, fpga_as_is_tdata = 0000000a
                9985=> fpga_axis_req send data, fpga_as_is_tupsb = 01011, fpga_as_is_tstrb = 0000, fpga_as_is_tkeep = 0000, fpga_as_is_tlast = 0, fpga_as_is_tdata = 0000000b
               10025=> fpga_axis_req send data, fpga_as_is_tupsb = 01100, fpga_as_is_tstrb = 0000, fpga_as_is_tkeep = 0000, fpga_as_is_tlast = 0, fpga_as_is_tdata = 0000000c
               10065=> fpga_axis_req send data, fpga_as_is_tupsb = 01101, fpga_as_is_tstrb = 0000, fpga_as_is_tkeep = 0000, fpga_as_is_tlast = 0, fpga_as_is_tdata = 0000000d
               10105=> fpga_axis_req send data, fpga_as_is_tupsb = 01110, fpga_as_is_tstrb = 0000, fpga_as_is_tkeep = 0000, fpga_as_is_tlast = 0, fpga_as_is_tdata = 0000000e
               10145=> fpga_axis_req send data, fpga_as_is_tupsb = 01111, fpga_as_is_tstrb = 0000, fpga_as_is_tkeep = 0000, fpga_as_is_tlast = 0, fpga_as_is_tdata = 0000000f
               10185=> fpga_axis_req send data, fpga_as_is_tupsb = 10000, fpga_as_is_tstrb = 0000, fpga_as_is_tkeep = 0000, fpga_as_is_tlast = 0, fpga_as_is_tdata = 00000010
               10465=> get soc_to_fpga_axis be : soc_to_fpga_axis_captured_count=  0,  soc_to_fpga_axis_captured[  0] =xxxxxxxxxxxx, fpga_is_as_tupsb=xx, fpga_is_as_tstrb=x, fpga_is_as_tkeep=x , fpga_is_as_tlast=0, fpga_is_as_tdata=00000000
               10465=> get soc_to_fpga_axis af : soc_to_fpga_axis_captured_count=  0,  soc_to_fpga_axis_captured[  0] =xxxX00000000, fpga_is_as_tupsb=xx, fpga_is_as_tstrb=x, fpga_is_as_tkeep=x , fpga_is_as_tlast=0, fpga_is_as_tdata=00000000
               11025=> get soc_to_fpga_axis be : soc_to_fpga_axis_captured_count=  1,  soc_to_fpga_axis_captured[  1] =xxxxxxxxxxxx, fpga_is_as_tupsb=xx, fpga_is_as_tstrb=x, fpga_is_as_tkeep=x , fpga_is_as_tlast=0, fpga_is_as_tdata=00000000
               11025=> get soc_to_fpga_axis af : soc_to_fpga_axis_captured_count=  1,  soc_to_fpga_axis_captured[  1] =xxxX00000000, fpga_is_as_tupsb=xx, fpga_is_as_tstrb=x, fpga_is_as_tkeep=x , fpga_is_as_tlast=0, fpga_is_as_tdata=00000000
               11585=> get soc_to_fpga_axis be : soc_to_fpga_axis_captured_count=  2,  soc_to_fpga_axis_captured[  2] =xxxxxxxxxxxx, fpga_is_as_tupsb=xx, fpga_is_as_tstrb=x, fpga_is_as_tkeep=x , fpga_is_as_tlast=0, fpga_is_as_tdata=fffffff6
               11585=> get soc_to_fpga_axis af : soc_to_fpga_axis_captured_count=  2,  soc_to_fpga_axis_captured[  2] =xxxXfffffff6, fpga_is_as_tupsb=xx, fpga_is_as_tstrb=x, fpga_is_as_tkeep=x , fpga_is_as_tlast=0, fpga_is_as_tdata=fffffff6
               12145=> get soc_to_fpga_axis be : soc_to_fpga_axis_captured_count=  3,  soc_to_fpga_axis_captured[  3] =xxxxxxxxxxxx, fpga_is_as_tupsb=xx, fpga_is_as_tstrb=x, fpga_is_as_tkeep=x , fpga_is_as_tlast=0, fpga_is_as_tdata=ffffffe3
               12145=> get soc_to_fpga_axis af : soc_to_fpga_axis_captured_count=  3,  soc_to_fpga_axis_captured[  3] =xxxXffffffe3, fpga_is_as_tupsb=xx, fpga_is_as_tstrb=x, fpga_is_as_tkeep=x , fpga_is_as_tlast=0, fpga_is_as_tdata=ffffffe3
               12705=> get soc_to_fpga_axis be : soc_to_fpga_axis_captured_count=  4,  soc_to_fpga_axis_captured[  4] =xxxxxxxxxxxx, fpga_is_as_tupsb=xx, fpga_is_as_tstrb=x, fpga_is_as_tkeep=x , fpga_is_as_tlast=0, fpga_is_as_tdata=ffffffe7
               12705=> get soc_to_fpga_axis af : soc_to_fpga_axis_captured_count=  4,  soc_to_fpga_axis_captured[  4] =xxxXffffffe7, fpga_is_as_tupsb=xx, fpga_is_as_tstrb=x, fpga_is_as_tkeep=x , fpga_is_as_tlast=0, fpga_is_as_tdata=ffffffe7
               13265=> get soc_to_fpga_axis be : soc_to_fpga_axis_captured_count=  5,  soc_to_fpga_axis_captured[  5] =xxxxxxxxxxxx, fpga_is_as_tupsb=xx, fpga_is_as_tstrb=x, fpga_is_as_tkeep=x , fpga_is_as_tlast=0, fpga_is_as_tdata=00000023
               13265=> get soc_to_fpga_axis af : soc_to_fpga_axis_captured_count=  5,  soc_to_fpga_axis_captured[  5] =xxxX00000023, fpga_is_as_tupsb=xx, fpga_is_as_tstrb=x, fpga_is_as_tkeep=x , fpga_is_as_tlast=0, fpga_is_as_tdata=00000023
               13825=> get soc_to_fpga_axis be : soc_to_fpga_axis_captured_count=  6,  soc_to_fpga_axis_captured[  6] =xxxxxxxxxxxx, fpga_is_as_tupsb=xx, fpga_is_as_tstrb=x, fpga_is_as_tkeep=x , fpga_is_as_tlast=0, fpga_is_as_tdata=0000009e
               13825=> get soc_to_fpga_axis af : soc_to_fpga_axis_captured_count=  6,  soc_to_fpga_axis_captured[  6] =xxxX0000009e, fpga_is_as_tupsb=xx, fpga_is_as_tstrb=x, fpga_is_as_tkeep=x , fpga_is_as_tlast=0, fpga_is_as_tdata=0000009e
               14385=> get soc_to_fpga_axis be : soc_to_fpga_axis_captured_count=  7,  soc_to_fpga_axis_captured[  7] =xxxxxxxxxxxx, fpga_is_as_tupsb=xx, fpga_is_as_tstrb=x, fpga_is_as_tkeep=x , fpga_is_as_tlast=0, fpga_is_as_tdata=00000151
               14385=> get soc_to_fpga_axis af : soc_to_fpga_axis_captured_count=  7,  soc_to_fpga_axis_captured[  7] =xxxX00000151, fpga_is_as_tupsb=xx, fpga_is_as_tstrb=x, fpga_is_as_tkeep=x , fpga_is_as_tlast=0, fpga_is_as_tdata=00000151
               14945=> get soc_to_fpga_axis be : soc_to_fpga_axis_captured_count=  8,  soc_to_fpga_axis_captured[  8] =xxxxxxxxxxxx, fpga_is_as_tupsb=xx, fpga_is_as_tstrb=x, fpga_is_as_tkeep=x , fpga_is_as_tlast=0, fpga_is_as_tdata=0000021b
               14945=> get soc_to_fpga_axis af : soc_to_fpga_axis_captured_count=  8,  soc_to_fpga_axis_captured[  8] =xxxX0000021b, fpga_is_as_tupsb=xx, fpga_is_as_tstrb=x, fpga_is_as_tkeep=x , fpga_is_as_tlast=0, fpga_is_as_tdata=0000021b
               15065=> fpga_axis_req send data, fpga_as_is_tupsb = 10001, fpga_as_is_tstrb = 0000, fpga_as_is_tkeep = 0000, fpga_as_is_tlast = 0, fpga_as_is_tdata = 00000011
               15105=> fpga_axis_req send data, fpga_as_is_tupsb = 10010, fpga_as_is_tstrb = 0000, fpga_as_is_tkeep = 0000, fpga_as_is_tlast = 0, fpga_as_is_tdata = 00000012
               15145=> fpga_axis_req send data, fpga_as_is_tupsb = 10011, fpga_as_is_tstrb = 0000, fpga_as_is_tkeep = 0000, fpga_as_is_tlast = 0, fpga_as_is_tdata = 00000013
               15185=> fpga_axis_req send data, fpga_as_is_tupsb = 10100, fpga_as_is_tstrb = 0000, fpga_as_is_tkeep = 0000, fpga_as_is_tlast = 0, fpga_as_is_tdata = 00000014
               15225=> fpga_axis_req send data, fpga_as_is_tupsb = 10101, fpga_as_is_tstrb = 0000, fpga_as_is_tkeep = 0000, fpga_as_is_tlast = 0, fpga_as_is_tdata = 00000015
               15265=> fpga_axis_req send data, fpga_as_is_tupsb = 10110, fpga_as_is_tstrb = 0000, fpga_as_is_tkeep = 0000, fpga_as_is_tlast = 0, fpga_as_is_tdata = 00000016
               15305=> fpga_axis_req send data, fpga_as_is_tupsb = 10111, fpga_as_is_tstrb = 0000, fpga_as_is_tkeep = 0000, fpga_as_is_tlast = 0, fpga_as_is_tdata = 00000017
               15345=> fpga_axis_req send data, fpga_as_is_tupsb = 11000, fpga_as_is_tstrb = 0000, fpga_as_is_tkeep = 0000, fpga_as_is_tlast = 0, fpga_as_is_tdata = 00000018
               15385=> fpga_axis_req send data, fpga_as_is_tupsb = 11001, fpga_as_is_tstrb = 0000, fpga_as_is_tkeep = 0000, fpga_as_is_tlast = 0, fpga_as_is_tdata = 00000019
               15505=> get soc_to_fpga_axis be : soc_to_fpga_axis_captured_count=  9,  soc_to_fpga_axis_captured[  9] =xxxxxxxxxxxx, fpga_is_as_tupsb=xx, fpga_is_as_tstrb=x, fpga_is_as_tkeep=x , fpga_is_as_tlast=0, fpga_is_as_tdata=000002dc
               15505=> get soc_to_fpga_axis af : soc_to_fpga_axis_captured_count=  9,  soc_to_fpga_axis_captured[  9] =xxxX000002dc, fpga_is_as_tupsb=xx, fpga_is_as_tstrb=x, fpga_is_as_tkeep=x , fpga_is_as_tlast=0, fpga_is_as_tdata=000002dc
               16065=> get soc_to_fpga_axis be : soc_to_fpga_axis_captured_count= 10,  soc_to_fpga_axis_captured[ 10] =xxxxxxxxxxxx, fpga_is_as_tupsb=xx, fpga_is_as_tstrb=x, fpga_is_as_tkeep=x , fpga_is_as_tlast=0, fpga_is_as_tdata=00000393
               16065=> get soc_to_fpga_axis af : soc_to_fpga_axis_captured_count= 10,  soc_to_fpga_axis_captured[ 10] =xxxX00000393, fpga_is_as_tupsb=xx, fpga_is_as_tstrb=x, fpga_is_as_tkeep=x , fpga_is_as_tlast=0, fpga_is_as_tdata=00000393
               16625=> get soc_to_fpga_axis be : soc_to_fpga_axis_captured_count= 11,  soc_to_fpga_axis_captured[ 11] =xxxxxxxxxxxx, fpga_is_as_tupsb=xx, fpga_is_as_tstrb=x, fpga_is_as_tkeep=x , fpga_is_as_tlast=0, fpga_is_as_tdata=0000044a
               16625=> get soc_to_fpga_axis af : soc_to_fpga_axis_captured_count= 11,  soc_to_fpga_axis_captured[ 11] =xxxX0000044a, fpga_is_as_tupsb=xx, fpga_is_as_tstrb=x, fpga_is_as_tkeep=x , fpga_is_as_tlast=0, fpga_is_as_tdata=0000044a
               17185=> get soc_to_fpga_axis be : soc_to_fpga_axis_captured_count= 12,  soc_to_fpga_axis_captured[ 12] =xxxxxxxxxxxx, fpga_is_as_tupsb=xx, fpga_is_as_tstrb=x, fpga_is_as_tkeep=x , fpga_is_as_tlast=0, fpga_is_as_tdata=00000501
               17185=> get soc_to_fpga_axis af : soc_to_fpga_axis_captured_count= 12,  soc_to_fpga_axis_captured[ 12] =xxxX00000501, fpga_is_as_tupsb=xx, fpga_is_as_tstrb=x, fpga_is_as_tkeep=x , fpga_is_as_tlast=0, fpga_is_as_tdata=00000501
               17745=> get soc_to_fpga_axis be : soc_to_fpga_axis_captured_count= 13,  soc_to_fpga_axis_captured[ 13] =xxxxxxxxxxxx, fpga_is_as_tupsb=xx, fpga_is_as_tstrb=x, fpga_is_as_tkeep=x , fpga_is_as_tlast=0, fpga_is_as_tdata=000005b8
               17745=> get soc_to_fpga_axis af : soc_to_fpga_axis_captured_count= 13,  soc_to_fpga_axis_captured[ 13] =xxxX000005b8, fpga_is_as_tupsb=xx, fpga_is_as_tstrb=x, fpga_is_as_tkeep=x , fpga_is_as_tlast=0, fpga_is_as_tdata=000005b8
               18305=> get soc_to_fpga_axis be : soc_to_fpga_axis_captured_count= 14,  soc_to_fpga_axis_captured[ 14] =xxxxxxxxxxxx, fpga_is_as_tupsb=xx, fpga_is_as_tstrb=x, fpga_is_as_tkeep=x , fpga_is_as_tlast=0, fpga_is_as_tdata=0000066f
               18305=> get soc_to_fpga_axis af : soc_to_fpga_axis_captured_count= 14,  soc_to_fpga_axis_captured[ 14] =xxxX0000066f, fpga_is_as_tupsb=xx, fpga_is_as_tstrb=x, fpga_is_as_tkeep=x , fpga_is_as_tlast=0, fpga_is_as_tdata=0000066f
               18865=> get soc_to_fpga_axis be : soc_to_fpga_axis_captured_count= 15,  soc_to_fpga_axis_captured[ 15] =xxxxxxxxxxxx, fpga_is_as_tupsb=xx, fpga_is_as_tstrb=x, fpga_is_as_tkeep=x , fpga_is_as_tlast=0, fpga_is_as_tdata=00000726
               18865=> get soc_to_fpga_axis af : soc_to_fpga_axis_captured_count= 15,  soc_to_fpga_axis_captured[ 15] =xxxX00000726, fpga_is_as_tupsb=xx, fpga_is_as_tstrb=x, fpga_is_as_tkeep=x , fpga_is_as_tlast=0, fpga_is_as_tdata=00000726
               19425=> get soc_to_fpga_axis be : soc_to_fpga_axis_captured_count= 16,  soc_to_fpga_axis_captured[ 16] =xxxxxxxxxxxx, fpga_is_as_tupsb=xx, fpga_is_as_tstrb=x, fpga_is_as_tkeep=x , fpga_is_as_tlast=0, fpga_is_as_tdata=000007dd
               19425=> get soc_to_fpga_axis af : soc_to_fpga_axis_captured_count= 16,  soc_to_fpga_axis_captured[ 16] =xxxX000007dd, fpga_is_as_tupsb=xx, fpga_is_as_tstrb=x, fpga_is_as_tkeep=x , fpga_is_as_tlast=0, fpga_is_as_tdata=000007dd
               19985=> get soc_to_fpga_axis be : soc_to_fpga_axis_captured_count= 17,  soc_to_fpga_axis_captured[ 17] =xxxxxxxxxxxx, fpga_is_as_tupsb=xx, fpga_is_as_tstrb=x, fpga_is_as_tkeep=x , fpga_is_as_tlast=0, fpga_is_as_tdata=00000894
               19985=> get soc_to_fpga_axis af : soc_to_fpga_axis_captured_count= 17,  soc_to_fpga_axis_captured[ 17] =xxxX00000894, fpga_is_as_tupsb=xx, fpga_is_as_tstrb=x, fpga_is_as_tkeep=x , fpga_is_as_tlast=0, fpga_is_as_tdata=00000894
               20105=> fpga_axis_req send data, fpga_as_is_tupsb = 11010, fpga_as_is_tstrb = 0000, fpga_as_is_tkeep = 0000, fpga_as_is_tlast = 0, fpga_as_is_tdata = 0000001a
               20145=> fpga_axis_req send data, fpga_as_is_tupsb = 11011, fpga_as_is_tstrb = 0000, fpga_as_is_tkeep = 0000, fpga_as_is_tlast = 0, fpga_as_is_tdata = 0000001b
               20185=> fpga_axis_req send data, fpga_as_is_tupsb = 11100, fpga_as_is_tstrb = 0000, fpga_as_is_tkeep = 0000, fpga_as_is_tlast = 0, fpga_as_is_tdata = 0000001c
               20225=> fpga_axis_req send data, fpga_as_is_tupsb = 11101, fpga_as_is_tstrb = 0000, fpga_as_is_tkeep = 0000, fpga_as_is_tlast = 0, fpga_as_is_tdata = 0000001d
               20265=> fpga_axis_req send data, fpga_as_is_tupsb = 11110, fpga_as_is_tstrb = 0000, fpga_as_is_tkeep = 0000, fpga_as_is_tlast = 0, fpga_as_is_tdata = 0000001e
               20305=> fpga_axis_req send data, fpga_as_is_tupsb = 11111, fpga_as_is_tstrb = 0000, fpga_as_is_tkeep = 0000, fpga_as_is_tlast = 0, fpga_as_is_tdata = 0000001f
               20345=> fpga_axis_req send data, fpga_as_is_tupsb = 00000, fpga_as_is_tstrb = 0000, fpga_as_is_tkeep = 0000, fpga_as_is_tlast = 0, fpga_as_is_tdata = 00000020
               20385=> fpga_axis_req send data, fpga_as_is_tupsb = 00001, fpga_as_is_tstrb = 0000, fpga_as_is_tkeep = 0000, fpga_as_is_tlast = 0, fpga_as_is_tdata = 00000021
               20425=> fpga_axis_req send data, fpga_as_is_tupsb = 00010, fpga_as_is_tstrb = 0000, fpga_as_is_tkeep = 0000, fpga_as_is_tlast = 0, fpga_as_is_tdata = 00000022
               20545=> get soc_to_fpga_axis be : soc_to_fpga_axis_captured_count= 18,  soc_to_fpga_axis_captured[ 18] =xxxxxxxxxxxx, fpga_is_as_tupsb=xx, fpga_is_as_tstrb=x, fpga_is_as_tkeep=x , fpga_is_as_tlast=0, fpga_is_as_tdata=0000094b
               20545=> get soc_to_fpga_axis af : soc_to_fpga_axis_captured_count= 18,  soc_to_fpga_axis_captured[ 18] =xxxX0000094b, fpga_is_as_tupsb=xx, fpga_is_as_tstrb=x, fpga_is_as_tkeep=x , fpga_is_as_tlast=0, fpga_is_as_tdata=0000094b
